$>mongoimport --db "AGIW" --collection dumpUntrusted --type tsv --file dbpedia_mapping_based_triples.tsv --fields Entita1,Relazione,Entita2

2017-02-02T15:46:42.363+0100    connected to: localhost
2017-02-02T15:46:45.356+0100    [########################] AGIW.dumpUntrusted  1.85GB/29.4MB (6460.8%)
2017-02-02T15:46:48.356+0100    [########################] AGIW.dumpUntrusted  1.85GB/60.9MB (3114.4%)
2017-02-02T15:46:51.356+0100    [########################] AGIW.dumpUntrusted  1.85GB/90.8MB (2090.4%)
2017-02-02T15:46:54.357+0100    [########################] AGIW.dumpUntrusted  1.85GB/121MB (1572.9%)
2017-02-02T15:46:57.356+0100    [########################] AGIW.dumpUntrusted  1.85GB/151MB (1258.7%)
2017-02-02T15:47:00.356+0100    [########################] AGIW.dumpUntrusted  1.85GB/180MB (1052.8%)
2017-02-02T15:47:03.356+0100    [########################] AGIW.dumpUntrusted  1.85GB/211MB (900.7%)
2017-02-02T15:47:06.357+0100    [########################] AGIW.dumpUntrusted  1.85GB/240MB (790.9%)
2017-02-02T15:47:09.356+0100    [########################] AGIW.dumpUntrusted  1.85GB/270MB (703.6%)
2017-02-02T15:47:12.356+0100    [########################] AGIW.dumpUntrusted  1.85GB/299MB (634.3%)
2017-02-02T15:47:15.356+0100    [########################] AGIW.dumpUntrusted  1.85GB/328MB (578.2%)
2017-02-02T15:47:18.357+0100    [########################] AGIW.dumpUntrusted  1.85GB/357MB (531.7%)
2017-02-02T15:47:21.356+0100    [########################] AGIW.dumpUntrusted  1.85GB/385MB (492.4%)
2017-02-02T15:47:24.356+0100    [########################] AGIW.dumpUntrusted  1.85GB/414MB (458.2%)
2017-02-02T15:47:27.356+0100    [########################] AGIW.dumpUntrusted  1.85GB/442MB (429.6%)
2017-02-02T15:47:30.357+0100    [########################] AGIW.dumpUntrusted  1.85GB/471MB (402.7%)
2017-02-02T15:47:33.356+0100    [########################] AGIW.dumpUntrusted  1.85GB/501MB (378.8%)
2017-02-02T15:47:36.356+0100    [########################] AGIW.dumpUntrusted  1.85GB/529MB (358.3%)
2017-02-02T15:47:39.356+0100    [########################] AGIW.dumpUntrusted  1.85GB/559MB (339.7%)
2017-02-02T15:47:42.357+0100    [########################] AGIW.dumpUntrusted  1.85GB/587MB (323.1%)
2017-02-02T15:47:45.356+0100    [########################] AGIW.dumpUntrusted  1.85GB/617MB (307.2%)
2017-02-02T15:47:48.356+0100    [########################] AGIW.dumpUntrusted  1.85GB/646MB (293.6%)
2017-02-02T15:47:51.356+0100    [########################] AGIW.dumpUntrusted  1.85GB/672MB (282.4%)
2017-02-02T15:47:54.357+0100    [########################] AGIW.dumpUntrusted  1.85GB/700MB (271.1%)
2017-02-02T15:47:57.356+0100    [########################] AGIW.dumpUntrusted  1.85GB/728MB (260.7%)
2017-02-02T15:48:00.356+0100    [########################] AGIW.dumpUntrusted  1.85GB/756MB (250.8%)
2017-02-02T15:48:03.356+0100    [########################] AGIW.dumpUntrusted  1.85GB/785MB (241.8%)
2017-02-02T15:48:06.357+0100    [########################] AGIW.dumpUntrusted  1.85GB/813MB (233.4%)
2017-02-02T15:48:09.356+0100    [########################] AGIW.dumpUntrusted  1.85GB/840MB (225.7%)
2017-02-02T15:48:12.356+0100    [########################] AGIW.dumpUntrusted  1.85GB/869MB (218.2%)
2017-02-02T15:48:15.356+0100    [########################] AGIW.dumpUntrusted  1.85GB/899MB (210.9%)
2017-02-02T15:48:18.357+0100    [########################] AGIW.dumpUntrusted  1.85GB/928MB (204.4%)
2017-02-02T15:48:21.356+0100    [########################] AGIW.dumpUntrusted  1.85GB/957MB (198.1%)
2017-02-02T15:48:24.356+0100    [########################] AGIW.dumpUntrusted  1.85GB/987MB (192.3%)
2017-02-02T15:48:27.356+0100    [########################] AGIW.dumpUntrusted  1.85GB/1016MB (186.8%)
2017-02-02T15:48:30.357+0100    [########################] AGIW.dumpUntrusted  1.85GB/1.02GB (181.6%)
2017-02-02T15:48:33.356+0100    [########################] AGIW.dumpUntrusted  1.85GB/1.05GB (176.7%)
2017-02-02T15:48:36.356+0100    [########################] AGIW.dumpUntrusted  1.85GB/1.08GB (172.2%)
2017-02-02T15:48:39.356+0100    [########################] AGIW.dumpUntrusted  1.85GB/1.10GB (167.7%)
2017-02-02T15:48:42.357+0100    [########################] AGIW.dumpUntrusted  1.85GB/1.13GB (163.4%)
2017-02-02T15:48:45.356+0100    [########################] AGIW.dumpUntrusted  1.85GB/1.16GB (159.4%)
2017-02-02T15:48:48.356+0100    [########################] AGIW.dumpUntrusted  1.85GB/1.19GB (155.7%)
2017-02-02T15:48:51.356+0100    [########################] AGIW.dumpUntrusted  1.85GB/1.22GB (152.3%)
2017-02-02T15:48:54.357+0100    [########################] AGIW.dumpUntrusted  1.85GB/1.24GB (149.0%)
2017-02-02T15:48:57.356+0100    [########################] AGIW.dumpUntrusted  1.85GB/1.27GB (145.7%)
2017-02-02T15:49:00.357+0100    [########################] AGIW.dumpUntrusted  1.85GB/1.30GB (142.5%)
2017-02-02T15:49:03.356+0100    [########################] AGIW.dumpUntrusted  1.85GB/1.33GB (139.5%)
2017-02-02T15:49:06.357+0100    [########################] AGIW.dumpUntrusted  1.85GB/1.36GB (136.7%)
2017-02-02T15:49:09.356+0100    [########################] AGIW.dumpUntrusted  1.85GB/1.39GB (133.6%)
2017-02-02T15:49:12.356+0100    [########################] AGIW.dumpUntrusted  1.85GB/1.42GB (130.9%)
2017-02-02T15:49:15.356+0100    [########################] AGIW.dumpUntrusted  1.85GB/1.44GB (128.4%)
2017-02-02T15:49:18.357+0100    [########################] AGIW.dumpUntrusted  1.85GB/1.47GB (126.0%)
2017-02-02T15:49:21.356+0100    [########################] AGIW.dumpUntrusted  1.85GB/1.50GB (123.6%)
2017-02-02T15:49:24.356+0100    [########################] AGIW.dumpUntrusted  1.85GB/1.53GB (121.3%)
2017-02-02T15:49:27.356+0100    [########################] AGIW.dumpUntrusted  1.85GB/1.55GB (119.2%)
2017-02-02T15:49:30.357+0100    [########################] AGIW.dumpUntrusted  1.85GB/1.58GB (117.1%)
2017-02-02T15:49:33.356+0100    [########################] AGIW.dumpUntrusted  1.85GB/1.61GB (115.2%)
2017-02-02T15:49:36.356+0100    [########################] AGIW.dumpUntrusted  1.85GB/1.64GB (113.2%)
2017-02-02T15:49:39.356+0100    [########################] AGIW.dumpUntrusted  1.85GB/1.66GB (111.3%)
2017-02-02T15:49:42.356+0100    [########################] AGIW.dumpUntrusted  1.85GB/1.69GB (109.5%)
2017-02-02T15:49:45.356+0100    [########################] AGIW.dumpUntrusted  1.85GB/1.72GB (107.6%)
2017-02-02T15:49:48.356+0100    [########################] AGIW.dumpUntrusted  1.85GB/1.75GB (105.9%)
2017-02-02T15:49:51.356+0100    [########################] AGIW.dumpUntrusted  1.85GB/1.78GB (104.2%)
2017-02-02T15:49:54.356+0100    [########################] AGIW.dumpUntrusted  1.85GB/1.81GB (102.6%)
2017-02-02T15:49:57.356+0100    [########################] AGIW.dumpUntrusted  1.85GB/1.83GB (101.0%)
2017-02-02T15:49:59.351+0100    [########################] AGIW.dumpUntrusted  1.85GB/1.85GB (100.0%)
2017-02-02T15:49:59.352+0100    imported 15511655 documents